{
    "name": "cn",
    "version": "1.0.0",
    "client": {
        "organization": "cn",
        "connection": {
            "timeout": {
                "peer": {
                    "endorser": "300"
                }
            }
        }
    },
    "organizations": {
        "cn": {
            "mspid": "cnMSP",
            "peers": [
                "peer0.cn"
            ],
            "certificateAuthorities": [
                "ca.cn"
            ]
        }
    },
    "peers": {
        "peer0.cn": {
            "url": "grpcs://localhost:7050",
            "tlsCACerts": {
                "pem": "-----BEGIN CERTIFICATE-----\nMIIBmTCCAT+gAwIBAgIUW/9Fc2qBpw7AeBactYbREdziP0MwCgYIKoZIzj0EAwIw\nKTEXMBUGA1UEChMObG9jYWxyb290Y2hhaW4xDjAMBgNVBAMTBWNhLmNuMB4XDTIw\nMTEwOTA5NDgwMFoXDTM1MTEwNjA5NDgwMFowKTEXMBUGA1UEChMObG9jYWxyb290\nY2hhaW4xDjAMBgNVBAMTBWNhLmNuMFkwEwYHKoZIzj0CAQYIKoZIzj0DAQcDQgAE\nsOCfgGQLX4SPkBm6RjGOCWLqej8BQhwFD6cbn+NlzE/8uu07ulo7vJF1e6+JIg7f\niUMvF86O61XP5qykSVDe46NFMEMwDgYDVR0PAQH/BAQDAgEGMBIGA1UdEwEB/wQI\nMAYBAf8CAQEwHQYDVR0OBBYEFGMsGwAt6hwE29WwEMLWmEsl7tH3MAoGCCqGSM49\nBAMCA0gAMEUCIQD7O9GuHX1ZNKVviXWv4MCF5JqdApCVmGDpEdtpsUK/pAIgfOGi\nNYIxaW6tzvDwt7PIzEcPrqOyWRUYYRJgZ43qOFs=\n-----END CERTIFICATE-----\n"
            },
            "grpcOptions": {
                "ssl-target-name-override": "peer0.cn",
                "hostnameOverride": "peer0.cn"
            }
        }
    },
    "certificateAuthorities": {
        "ca.cn": {
            "url": "https://localhost:7054",
            "caName": "ca-cn",
            "tlsCACerts": {
                "pem": ["-----BEGIN CERTIFICATE-----\nMIIBmTCCAT+gAwIBAgIUW/9Fc2qBpw7AeBactYbREdziP0MwCgYIKoZIzj0EAwIw\nKTEXMBUGA1UEChMObG9jYWxyb290Y2hhaW4xDjAMBgNVBAMTBWNhLmNuMB4XDTIw\nMTEwOTA5NDgwMFoXDTM1MTEwNjA5NDgwMFowKTEXMBUGA1UEChMObG9jYWxyb290\nY2hhaW4xDjAMBgNVBAMTBWNhLmNuMFkwEwYHKoZIzj0CAQYIKoZIzj0DAQcDQgAE\nsOCfgGQLX4SPkBm6RjGOCWLqej8BQhwFD6cbn+NlzE/8uu07ulo7vJF1e6+JIg7f\niUMvF86O61XP5qykSVDe46NFMEMwDgYDVR0PAQH/BAQDAgEGMBIGA1UdEwEB/wQI\nMAYBAf8CAQEwHQYDVR0OBBYEFGMsGwAt6hwE29WwEMLWmEsl7tH3MAoGCCqGSM49\nBAMCA0gAMEUCIQD7O9GuHX1ZNKVviXWv4MCF5JqdApCVmGDpEdtpsUK/pAIgfOGi\nNYIxaW6tzvDwt7PIzEcPrqOyWRUYYRJgZ43qOFs=\n-----END CERTIFICATE-----\n"]
            },
            "httpOptions": {
                "verify": false
            }
        }
    }
}
